Lesson 7 Base subsetting | 2020-01-15-brynmawr
…
##   [1]   1   1   3   4   5   6   7   8   9  10  11  12  13  14  15  16  17  18
##  [19]  19  20  21  22  23  24  25  26  27  28  29  30  31  32  33  34  35  36
##  [37]  37  38  39  40  41  42  43  44  45  46  47  48  49  50  51  52  21  54
##  [55]  55  56  57  58  59  60  61  62  63  64  65  66  67  68  69  70  71 127
##  [73] 133 152 153 155 178 177 180 181 182 186 187 195 196 197 198 201 202  72
##  [91]  73  76  83  85  89 101 103 102  78  80 104 105 106 109 110 113 118 125
## [109] 119 115 108 116 117 144 143 150 159 160 165 166 167 174 175 189 191 192
## [127] 126 193 194 199 200

## first column of the data frame (as a data.frame)
interviews[1]

## # A tibble: 131 x 1
##    key_ID
##     <dbl>
##  1      1
##  2      1
##  3      3
##  4      4
##  5      5
##  6      6
##  7      7
##  8      8
##  9      9
## 10     10
## # … with 121 more rows
…
## equivalent to head_interviews <- head(interviews)
head_interviews <- interviews[1:6, ]

: is a special function that creates numeric vectors of integers in increasing or decreasing order, test 1:10 and 10:1 for instance.

You can also exclude certain indices of a data frame using the “-” sign:

interviews[, -1]          # The whole data frame, except the first column

## # A tibble: 131 x 13
##    village interview_date      no_membrs years_liv respondent_wall… rooms
##    <chr>   <dttm>                  <dbl>     <dbl> <chr>            <dbl>
##  1 God     2016-11-17 00:00:00         3         4 muddaub              1
##  2 God     2016-11-17 00:00:00         7         9 muddaub              1
##  3 God     2016-11-17 00:00:00        10        15 burntbricks          1
##  4 God     2016-11-17 00:00:00         7         6 burntbricks          1
##  5 God     2016-11-17 00:00:00         7        40 burntbricks          1
##  6 God     2016-11-17 00:00:00         3         3 muddaub              1
##  7 God     2016-11-17 00:00:00         6        38 muddaub              1
##  8 Chirod… 2016-11-16 00:00:00        12        70 burntbricks          3
##  9 Chirod… 2016-11-16 00:00:00         8         6 burntbricks          1
## 10 Chirod… 2016-12-16 00:00:00        12        23 burntbricks          5
## # … with 121 more rows, and 7 more variables: memb_assoc <chr>,
## #   affect_conflicts <chr>, liv_count <dbl>, items_owned <chr>, no_meals <dbl>,
## #   months_lack_food <chr>, instanceID <chr>
…
