Lesson 5 Starting with Data | 2020-01-15-brynmawr
…
You are going load the data in R’s memory using the function read_csv() from the readr package which is part of the tidyverse. So, before we can use the read_csv() function, we need to load the package. Also, if you recall, the missing data is encoded as “NULL” in the dataset. We’ll tell it to the function, so R will automatically convert all the “NULL” entries in the dataset into NA.

library(tidyverse)
interviews <- read_csv("data/SAFI_clean.csv", na = "NULL")

This statement creates a data frame but doesn’t show any data because, as you might recall, assignments don’t display anything. (Note, however, that read_csv may show informational text about the data frame that is created.) If we want to check that our data has been loaded, we can see the contents of the data frame by typing its name: interviews.

interviews
## Try also
## View(interviews)
## head(interviews)

## # A tibble: 131 x 14
##    key_ID village interview_date      no_membrs years_liv respondent_wall… rooms
##     <dbl> <chr>   <dttm>                  <dbl>     <dbl> <chr>            <dbl>
##  1      1 God     2016-11-17 00:00:00         3         4 muddaub              1
##  2      1 God     2016-11-17 00:00:00         7         9 muddaub              1
##  3      3 God     2016-11-17 00:00:00        10        15 burntbricks          1
##  4      4 God     2016-11-17 00:00:00         7         6 burntbricks          1
##  5      5 God     2016-11-17 00:00:00         7        40 burntbricks          1
##  6      6 God     2016-11-17 00:00:00         3         3 muddaub              1
##  7      7 God     2016-11-17 00:00:00         6        38 muddaub              1
##  8      8 Chirod… 2016-11-16 00:00:00        12        70 burntbricks          3
##  9      9 Chirod… 2016-11-16 00:00:00         8         6 burntbricks          1
## 10     10 Chirod… 2016-12-16 00:00:00        12        23 burntbricks          5
## # … with 121 more rows, and 7 more variables: memb_assoc <chr>,
## #   affect_conflicts <chr>, liv_count <dbl>, items_owned <chr>, no_meals <dbl>,
## #   months_lack_food <chr>, instanceID <chr>
…
