Lesson 6 Data Wrangling with dplyr | 2020-01-15-brynmawr
…
arrange(): sort results

count(): count discrete values

6.4 Selecting columns and filtering rows

To select columns of a data frame, use select(). The first argument to this function is the data frame (interviews), and the subsequent arguments are the columns to keep.

select(interviews, village, no_membrs, years_liv)

To choose rows based on a specific criteria, use filter():

filter(interviews, village == "God")

## # A tibble: 43 x 14
##    key_ID village interview_date      no_membrs years_liv respondent_wall… rooms
##     <dbl> <chr>   <dttm>                  <dbl>     <dbl> <chr>            <dbl>
##  1      1 God     2016-11-17 00:00:00         3         4 muddaub              1
##  2      1 God     2016-11-17 00:00:00         7         9 muddaub              1
##  3      3 God     2016-11-17 00:00:00        10        15 burntbricks          1
##  4      4 God     2016-11-17 00:00:00         7         6 burntbricks          1
##  5      5 God     2016-11-17 00:00:00         7        40 burntbricks          1
##  6      6 God     2016-11-17 00:00:00         3         3 muddaub              1
##  7      7 God     2016-11-17 00:00:00         6        38 muddaub              1
##  8     11 God     2016-11-21 00:00:00         6        20 sunbricks            1
##  9     12 God     2016-11-21 00:00:00         7        20 burntbricks          3
## 10     13 God     2016-11-21 00:00:00         6         8 burntbricks          1
## # … with 33 more rows, and 7 more variables: memb_assoc <chr>,
## #   affect_conflicts <chr>, liv_count <dbl>, items_owned <chr>, no_meals <dbl>,
## #   months_lack_food <chr>, instanceID <chr>
…
This is readable, but can clutter up your workspace with lots of objects that you have to name individually. With multiple steps, that can be hard to keep track of.

You can also nest functions (i.e. one function inside of another), like this:

interviews_god <- select(filter(interviews, village == "God"), no_membrs, years_liv)

This is handy, but can be difficult to read if too many functions are nested, as R evaluates the expression from the inside out (in this case, filtering, then selecting).

The last option, pipes, are a recent addition to R. Pipes let you take the output of one function and send it directly to the next, which is useful when you need to do many things to the same dataset. Pipes in R look like %>% and are made available via the magrittr package, installed automatically with dplyr. If you use RStudio, you can type the pipe with Ctrl + Shift + M if you have a PC or Cmd + Shift + M if you have a Mac.

interviews %>%
    filter(village == "God") %>%
    select(no_membrs, years_liv)

## # A tibble: 43 x 2
##    no_membrs years_liv
##        <dbl>     <dbl>
##  1         3         4
##  2         7         9
##  3        10        15
##  4         7         6
##  5         7        40
##  6         3         3
##  7         6        38
##  8         6        20
##  9         7        20
## 10         6         8
## # … with 33 more rows

In the above code, we use the pipe to send the interviews dataset first through filter() to keep rows where village is “God”, then through select() to keep only the no_membrs and years_liv columns. Since %>% takes the object on its left and passes it as the first argument to the function on its right, we don’t need to explicitly include the data frame as an argument to the filter() and select() functions any more.

Some may find it helpful to read the pipe like the word “then”. For instance, in the above example, we take the data frame interviews, then we filter for rows with village == "God", then we select columns no_membrs and years_liv. The dplyr functions by themselves are somewhat simple, but by combining them into linear workflows with the pipe, we can accomplish more complex manipulations of data frames.

If we want to create a new object with this smaller version of the data, we can assign it a new name:

interviews_god <- interviews %>%
    filter(village == "God") %>%
    select(no_membrs, years_liv)

interviews_god

## # A tibble: 43 x 2
##    no_membrs years_liv
##        <dbl>     <dbl>
##  1         3         4
##  2         7         9
##  3        10        15
##  4         7         6
##  5         7        40
##  6         3         3
##  7         6        38
##  8         6        20
##  9         7        20
## 10         6         8
## # … with 33 more rows

Note that the final data frame (interviews_god) is the leftmost part of this expression.

6.5 Exercise

Using pipes, subset the interviews data to include interviews where respondents were members of an irrigation association (memb_assoc) and retain only the columns affect_conflicts, liv_count, and no_meals.

6.5 Solution

interviews %>%
    filter(memb_assoc == "yes") %>%
    select(affect_conflicts, liv_count, no_meals)

## # A tibble: 33 x 3
##    affect_conflicts liv_count no_meals
##    <chr>                <dbl>    <dbl>
##  1 once                     3        2
##  2 never                    2        2
##  3 never                    2        3
##  4 once                     3        2
##  5 frequently               1        3
##  6 more_once                5        2
##  7 more_once                3        2
##  8 more_once                2        3
##  9 once                     3        3
## 10 never                    3        3
## # … with 23 more rows

6.5.1 Mutate

Frequently you’ll want to create new columns based on the values in existing columns, for example to do unit conversions, or to find the ratio of values in two columns. For this we’ll use mutate().

We might be interested in the ratio of number of household members to rooms used for sleeping (i.e. avg number of people per room):

interviews %>%
    mutate(people_per_room = no_membrs / rooms)

## # A tibble: 131 x 15
##    key_ID village interview_date      no_membrs years_liv respondent_wall… rooms
##     <dbl> <chr>   <dttm>                  <dbl>     <dbl> <chr>            <dbl>
##  1      1 God     2016-11-17 00:00:00         3         4 muddaub              1
##  2      1 God     2016-11-17 00:00:00         7         9 muddaub              1
##  3      3 God     2016-11-17 00:00:00        10        15 burntbricks          1
##  4      4 God     2016-11-17 00:00:00         7         6 burntbricks          1
##  5      5 God     2016-11-17 00:00:00         7        40 burntbricks          1
##  6      6 God     2016-11-17 00:00:00         3         3 muddaub              1
##  7      7 God     2016-11-17 00:00:00         6        38 muddaub              1
##  8      8 Chirod… 2016-11-16 00:00:00        12        70 burntbricks          3
##  9      9 Chirod… 2016-11-16 00:00:00         8         6 burntbricks          1
## 10     10 Chirod… 2016-12-16 00:00:00        12        23 burntbricks          5
## # … with 121 more rows, and 8 more variables: memb_assoc <chr>,
## #   affect_conflicts <chr>, liv_count <dbl>, items_owned <chr>, no_meals <dbl>,
## #   months_lack_food <chr>, instanceID <chr>, people_per_room <dbl>

We may be interested in investigating whether being a member of an irrigation association had any effect on the ratio of household members to rooms. To look at this relationship, we will first remove data from our dataset where the respondent didn’t answer the question of whether they were a member of an irrigation association. These cases are recorded as “NULL” in the dataset.

To remove these cases, we could insert a filter() in the chain:

interviews %>%
    filter(!is.na(memb_assoc)) %>%
    mutate(people_per_room = no_membrs / rooms)

## # A tibble: 92 x 15
##    key_ID village interview_date      no_membrs years_liv respondent_wall… rooms
##     <dbl> <chr>   <dttm>                  <dbl>     <dbl> <chr>            <dbl>
##  1      1 God     2016-11-17 00:00:00         7         9 muddaub              1
##  2      7 God     2016-11-17 00:00:00         6        38 muddaub              1
##  3      8 Chirod… 2016-11-16 00:00:00        12        70 burntbricks          3
##  4      9 Chirod… 2016-11-16 00:00:00         8         6 burntbricks          1
##  5     10 Chirod… 2016-12-16 00:00:00        12        23 burntbricks          5
##  6     12 God     2016-11-21 00:00:00         7        20 burntbricks          3
##  7     13 God     2016-11-21 00:00:00         6         8 burntbricks          1
##  8     15 God     2016-11-21 00:00:00         5        30 sunbricks            2
##  9     21 God     2016-11-21 00:00:00         8        20 burntbricks          1
## 10     24 Ruaca   2016-11-21 00:00:00         6         4 burntbricks          2
## # … with 82 more rows, and 8 more variables: memb_assoc <chr>,
## #   affect_conflicts <chr>, liv_count <dbl>, items_owned <chr>, no_meals <dbl>,
## #   months_lack_food <chr>, instanceID <chr>, people_per_room <dbl>
…
