Lesson 8 Advanced variable creation with forcats | 2020-01-15-brynmawr
…
8.4 strings

Much like forcats helps us deal with factor variables, there are packages to help us deal with string variables. Some useful packages are the tidyr package (which we’ve already seen) the stringr package (installed with the tidyverse, but needs to be loaded separately) and the tidytext package. Let’s say we’re interested in the items owned by the interviewees. Right now, all the items are stuck together into one not-very-useful variable,

interviews %>%
  select(items_owned)

## # A tibble: 131 x 1
##    items_owned                                                                  
##    <chr>                                                                        
##  1 bicycle;television;solar_panel;table                                         
##  2 cow_cart;bicycle;radio;cow_plough;solar_panel;solar_torch;table;mobile_phone 
##  3 solar_torch                                                                  
##  4 bicycle;radio;cow_plough;solar_panel;mobile_phone                            
##  5 motorcyle;radio;cow_plough;mobile_phone                                      
##  6 <NA>                                                                         
##  7 motorcyle;cow_plough                                                         
##  8 motorcyle;bicycle;television;radio;cow_plough;solar_panel;solar_torch;table;…
##  9 television;solar_panel;solar_torch                                           
## 10 cow_cart;motorcyle;bicycle;television;radio;cow_plough;solar_panel;solar_tor…
## # … with 121 more rows
…
Let’s extract our interview_date column and inspect the structure:

dates <- interviews$interview_date
str(dates)

##  POSIXct[1:131], format: "2016-11-17" "2016-11-17" "2016-11-17" "2016-11-17" "2016-11-17" ...

When we imported the data in R, read_csv() recognized that this column contained date information. We can now use the day(), month() and year() functions to extract this information from the date, and create new columns in our data frame to store it:

interviews$day <- day(dates)
interviews$month <- month(dates)
interviews$year <- year(dates)
interviews

## # A tibble: 131 x 36
##    key_ID village interview_date      no_membrs years_liv respondent_wall… rooms
##     <dbl> <chr>   <dttm>                  <dbl>     <dbl> <chr>            <dbl>
##  1      1 God     2016-11-17 00:00:00         3         4 muddaub              1
##  2      1 God     2016-11-17 00:00:00         7         9 muddaub              1
##  3      3 God     2016-11-17 00:00:00        10        15 burntbricks          1
##  4      4 God     2016-11-17 00:00:00         7         6 burntbricks          1
##  5      5 God     2016-11-17 00:00:00         7        40 burntbricks          1
##  6      6 God     2016-11-17 00:00:00         3         3 muddaub              1
##  7      7 God     2016-11-17 00:00:00         6        38 muddaub              1
##  8      8 Chirod… 2016-11-16 00:00:00        12        70 burntbricks          3
##  9      9 Chirod… 2016-11-16 00:00:00         8         6 burntbricks          1
## 10     10 Chirod… 2016-12-16 00:00:00        12        23 burntbricks          5
## # … with 121 more rows, and 29 more variables: memb_assoc <ord>,
## #   affect_conflicts <chr>, liv_count <dbl>, items_owned <chr>, no_meals <dbl>,
## #   months_lack_food <chr>, instanceID <chr>, has_bicycle <lgl>, bicycle <lgl>,
## #   television <lgl>, solar_panel <lgl>, table <lgl>, cow_cart <lgl>,
## #   radio <lgl>, cow_plough <lgl>, solar_torch <lgl>, mobile_phone <lgl>,
## #   motorcyle <lgl>, `NA` <lgl>, fridge <lgl>, electricity <lgl>,
## #   sofa_set <lgl>, lorry <lgl>, sterio <lgl>, computer <lgl>, car <lgl>,
## #   day <int>, month <dbl>, year <dbl>
…
